<svg width="420" height="429" viewBox="0 0 420 429" fill="none" xmlns="http://www.w3.org/2000/svg">
<path d="M0 0V227.398H159.574C149.818 228.544 82.2156 144.499 159.574 107.697C159.574 65.6388 159.574 42.0583 159.574 0H0Z" transform="translate(2 157.378) rotate(-40.976)" stroke="#490F83" stroke-opacity="0.15" stroke-width="2"/>
<path d="M0 0V227.398H159.574C149.818 228.544 82.2156 144.499 159.574 107.697C159.574 65.6388 159.574 42.0583 159.574 0H0Z" transform="translate(149.01 203.988) rotate(-40.976)" stroke="#490F83" stroke-opacity="0.15" stroke-width="2"/>
</svg>
